{
  "defaultSeverity": "error",
  "extends": [
    "tslint:recommended"
  ],
  "linterOptions": {
    "exclude": [
      "dist"
    ]
  },
  "jsRules": {},
  "rules": {
    "max-classes-per-file": false,
    "no-unused-expression": false
  },
  "rulesDirectory": []
}
