{
    "$schema": "https://themost-framework.github.io/themost/models/2018/2/schema.json",
    "@id": "http://schema.org/ActionStatusType",
    "name": "ActionStatusType",
    "description": "The status of an Action.",
    "title": "ActionStatusType",
    "abstract": false,
    "sealed": false,
    "implements": "Enumeration",
    "version": "1.0",
    "fields": [
        {
            "@id": "http://schema.org/additionalType",
            "name": "additionalType",
            "type": "Text",
            "readonly": true,
            "nullable": false,
            "value": "javascript:return this.model.name;"
        },
        {
            "@id": "http://schema.org/alternateName",
            "name": "alternateName",
            "type": "Text",
            "nullable": false
        },
        {
            "@id": "http://schema.org/name",
            "name": "name",
            "type": "Text",
            "nullable": false
        }
    ],
    "privileges": [
        {
            "mask": 1,
            "type": "global",
            "account": "*"
        },
        {
            "mask": 15,
            "type": "global"
        },
        {
            "mask": 15,
            "type": "global",
            "account": "Administrators"
        }
    ],
    "constraints": [
        {
            "type": "unique",
            "fields": [
                "alternateName"
            ]
        }
    ],
    "seed": [
        {
            "name": "Potential",
            "alternateName": "PotentialActionStatus",
            "description": "A description of an action that is supported.",
            "url": "http://schema.org/PotentialActionStatus"
        },
        {
            "name": "Failed",
            "alternateName": "FailedActionStatus",
            "description": "An action that failed to complete. The action's error property and the HTTP return code contain more information about the failure.",
            "url": "http://schema.org/FailedActionStatus"
        },
        {
            "name": "Completed",
            "alternateName": "CompletedActionStatus",
            "description": "An action that has already taken place.",
            "url": "http://schema.org/CompletedActionStatus"
        },
        {
            "name": "Active",
            "alternateName": "ActiveActionStatus",
            "description": "An in-progress action (e.g, while watching the movie, or driving to a location).",
            "url": "http://schema.org/ActiveActionStatus"
        },
        {
            "name": "Cancelled",
            "alternateName": "CancelledActionStatus",
            "description": "An action that has been cancelled.",
            "url": "http://schema.org/CancelledActionStatus"
        }
    ]
}