{
    "$schema": "https://themost-framework.github.io/themost/models/2018/2/schema.json",
    "@id": "http://schema.org/AutoRegisterClassAction",
    "name": "AutoRegisterClassAction",
    "description": "Auto student course class registration action.",
    "title": "AutoRegisterClassAction",
    "abstract": false,
    "sealed": false,
    "inherits": "ValidateAction",
    "version": "1.1",
    "fields": [
        {
            "name": "department",
            "title": "Department",
            "type": "Department",
            "nullable": false,
            "editable": false
        },
        {
            "name": "totalStudents",
            "title": "Total students",
            "description": "Total students",
            "type": "Integer"
        },
        {
            "name": "registrationYear",
            "title": "Registration year",
            "description": "Registration year",
            "type": "AcademicYear",
            "expandable": true,
            "nullable": false,
            "editable": false
        },
        {
            "name": "registrationPeriod",
            "title": "Registration period",
            "description": "Registration period",
            "type": "AcademicPeriod",
            "expandable": true,
            "nullable": false,
            "editable": false
        },
        {
            "name": "onlyObligatory",
            "title": "Only obligatory courses",
            "description": "True if only obligatory courses of the student's semester will be inserted",
            "type": "Boolean"
        },
        {
            "name": "notPassedObligatory",
            "title": "Not passed obligatory courses",
            "description": "True if not passed obligatory courses of previous semesters will be inserted",
            "type": "Boolean"
        },
        {
            "name": "courseType",
            "title": "Τύπος μαθήματος (για τα οφειλόμενα)",
            "description": "Τύπος του μαθήματος",
            "type": "CourseType"
        },
        {
            "@id": "http://schema.org/courseClass",
            "name": "courseClass",
            "title": "courseClass",
            "description": "The course class (for singular action)",
            "type": "CourseClass",
            "nullable": true,
            "editable": false
        },
        {
            "name": "courseClasses",
            "type": "CourseClass",
            "mapping": {
                "cascade": "delete",
                "associationType": "junction",
                "associationObjectField": "action",
                "associationValueField": "courseClass",
                "associationAdapter": "AutoRegisterCourseClasses",
                "privileges": [
                    {
                        "mask": 15,
                        "type": "global",
                        "account": "Administrators"
                    },
                    {
                        "mask": 15,
                        "type": "global",
                        "account": "Registrar"
                    }
                ]
            }
        },
        {
            "name": "results",
            "description": "A collection of results associated with this action.",
            "type": "AutoRegisterClassActionResult",
            "many": true,
            "mapping": {
                "parentModel": "AutoRegisterClassAction",
                "childModel": "AutoRegisterClassActionResult",
                "parentField": "id",
                "childField": "action",
                "cascade": "none",
                "associationType": "association"
            }
        }
    ],
    "privileges": [
        {
            "mask": 15,
            "type": "global"
        },
        {
            "mask": 15,
            "type": "global",
            "account": "Administrators"
        },
        {
            "mask": 15,
            "type": "self",
            "account": "Registrar",
            "filter": "department eq departments()"
        }
    ]
}
