{
  "$schema": "https://themost-framework.github.io/themost/models/2018/2/schema.json",
  "@id": "https://universis.io/schemas/Company",
  "name": "Company",
  "title": "Φορέας - Οργανισμός",
  "hidden": false,
  "sealed": false,
  "version": "0.2",
  "source": "CompanyBase",
  "view": "CompanyBase",
  "fields": [
    {
      "name": "id",
      "title": "Κωδικός",
      "description": "Ο κωδικός της εγγραφής",
      "type": "Integer",
      "nullable": false,
      "primary": true,
      "value": "javascript:return this.newid();"
    },

    {
      "name": "name",
      "title": "Ονομασία",
      "description": "Ονομασία φορέα/οργανισμού",
      "type": "Text",
      "nullable": false,
      "size": 100
    },
    {
      "name": "vatNumber",
      "title": "Αριθμός φορολογικού μητρώου",
      "description": "Αριθμός φορολογικού μητρώου",
      "type": "Text",
      "nullable": true,
      "size": 15
    },
    {
      "name": "vatOffice",
      "title": "Δημόσια Οικονομική Υπηρεσία (Δ.Ο.Υ)",
      "description": "Δημόσια Οικονομική Υπηρεσία (Δ.Ο.Υ)",
      "type": "Text",
      "nullable": true,
      "size": 80
    },
    {
      "name": "email",
      "title": "Διεύθυνση ηλεκτρονικού ταχυδρομείου επικοινωνίας",
      "description": "Διεύθυνση ηλεκτρονικού ταχυδρομείου επικοινωνίας",
      "type": "Text",
      "nullable": true,
      "size": 50
    },
    {
      "name": "address",
      "title": "Διεύθυνση",
      "description": "Η διεύθυνση του οργανισμού",
      "type": "Text",
      "nullable": true,
      "size": 100
    },

    {
      "name": "phone",
      "title": "Τηλέφωνο",
      "description": "Τηλέφωνο",
      "type": "Text",
      "size": 20
    },
    {
      "name": "fax",
      "title": "Αριθμός fax",
      "description": "Αριθμός fax",
      "type": "Text",
      "nullable": true,
      "size": 15
    },
    {
      "name": "dateModified",
      "title": "Ημερομηνία τελευταίας τροποποίησης",
      "description": "Ημερομηνία τελευταίας τροποποίησης",
      "type": "DateTime",
      "nullable": false,
      "value": "javascript:return new Date();",
      "calculation": "javascript:return this.now();"
    },
    {
      "name": "profession",
      "title": "Ειδικότητα/επάγγελμα",
      "description": "Ειδικότητα/επάγγελμα του οργανισμού",
      "type": "Text",
      "nullable": true,
      "size": 80
    },
    {
      "name": "locales",
      "type": "CompanyLocale",
      "mapping": {
        "associationType": "association",
        "cascade": "delete",
        "parentModel": "Company",
        "parentField": "id",
        "childModel": "CompanyLocale",
        "childField": "object"
      }
    },
    {
      "name": "locale",
      "type": "CompanyLocale",
      "readonly": true,
      "editable": false,
      "many": true,
      "expandable": true,
      "multiplicity": "ZeroOrOne",
      "mapping": {
        "associationType": "association",
        "cascade": "delete",
        "parentModel": "Company",
        "parentField": "id",
        "childModel": "CompanyLocale",
        "childField": "object",
        "options": {
          "$filter": "inLanguage eq lang()",
          "$first": true
        }
      }
    }
  ],
  "eventListeners": [
    {
      "type": "./listeners/data-localization"
    }
  ],
  "privileges": [
    {
      "mask": 15,
      "type": "global"
    },
    {
      "mask": 1,
      "type": "global",
      "account": "*"
    },
    {
      "mask": 15,
      "type": "global",
      "account": "Administrators"
    },
    {
      "mask": 15,
      "type": "global",
      "account": "Registrar"
    }
  ]
}
