{
  "$schema": "https://themost-framework.github.io/themost/models/2018/2/schema.json",
  "@id": "https://universis.io/schemas/CourseType",
  "name": "CourseType",
  "title": "Τύπος μαθήματος",
  "type": "lookup",
  "hidden": false,
  "sealed": false,
  "version": "0.2",
  "source": "CourseTypeBase",
  "view": "CourseTypeBase",
  "fields": [
    {
      "name": "id",
      "title": "Id",
      "description": "Κωδικός",
      "type": "Integer",
      "nullable": false,
      "size": 4,
      "primary": true,
      "value": "javascript:return this.newid();",
      "readonly": true
    },
    {
      "name": "name",
      "title": "Ονομασία",
      "description": "Η ονομασία του αντικειμένου",
      "type": "Text",
      "nullable": false,
      "size": 100
    },
    {
      "name": "abbreviation",
      "title": "Συντομογραφία",
      "description": "Συντομογραφία",
      "type": "Text",
      "nullable": false,
      "size": 5
    },
    {
      "name": "obligatoryType",
      "title": "Υποχρεωτικός τύπος (ΝΑΙ/ΟΧΙ)",
      "description": "Αν o τύπος μαθήματος ανήκει στους υποχρεωτικούς τύπους",
      "type": "Boolean",
      "calculation": "javascript:return this.convertStrictBoolean(this.target,'obligatoryType');",
      "nullable": false,
      "value": "javascript:return 0;"
    },
    {
      "name": "locales",
      "type": "CourseTypeLocale",
      "mapping": {
        "associationType": "association",
        "cascade": "delete",
        "parentModel": "CourseType",
        "parentField": "id",
        "childModel": "CourseTypeLocale",
        "childField": "object"
      }
    },
    {
      "name": "locale",
      "type": "CourseTypeLocale",
      "readonly": true,
      "editable": false,
      "many": true,
      "expandable": true,
      "multiplicity": "ZeroOrOne",
      "mapping": {
        "associationType": "association",
        "cascade": "delete",
        "parentModel": "CourseType",
        "parentField": "id",
        "childModel": "CourseTypeLocale",
        "childField": "object",
        "options": {
          "$filter": "inLanguage eq lang()",
          "$first": true
        }
      }
    }
  ],
  "privileges": [
    {
      "mask": 1,
      "type": "global",
      "account": "*"
    },
    {
      "mask": 15,
      "type": "global"
    },
    {
      "mask": 15,
      "type": "global",
      "account": "Administrators"
    }
  ],
  "eventListeners": [
    {
      "name": "Lookup Cache Listener",
      "type": "./listeners/lookup-cache-listener.js"
    },
    {
      "type": "./listeners/data-localization"
    }
  ]
}
