{
  "$schema": "https://themost-framework.github.io/themost/models/2018/2/schema.json",
  "@id": "https://universis.io/schemas/CourseExamInstructor",
  "name": "CourseExamInstructor",
  "title": "Σύνδεση εξεταστή με εξέταση μαθήματος",
  "hidden": false,
  "sealed": false,
  "version": "0.1",
  "source": "CourseExamInstructorData",
  "view": "CourseExamInstructorData",
  "fields": [
    {
      "name": "id",
      "title": "Κωδικός",
      "description": "Ο κωδικός σύνδεσης εξεταστή - εξέτασης",
      "type": "Text",
      "nullable": false,
      "size": 36,
      "primary": true,
      "readonly": true,
      "value": "javascript:return this.newGuid();"
    },
    {
      "name": "courseExam",
      "title": "Εξέταση μαθήματος",
      "description": "Η εξέταση του μαθήματος",
      "type": "CourseExam",
      "nullable": false,
      "editable": false
    },
    {
      "name": "instructor",
      "title": "Εξεταστής",
      "description": "Ο εξεταστής του μαθήματος για τη συγκεκριμένη εξέταση",
      "type": "Instructor",
      "nullable": false,
      "editable": false
    },
    {
      "name": "dateModified",
      "title": "Ημερομηνία τροποποίησης",
      "description": "Η ημερομηνία τροποποίησης.",
      "type": "DateTime",
      "value": "javascript:return new Date();",
      "calculation": "javascript:return this.now();"
    }
  ],
  "constraints": [
    {
      "type": "unique",
      "description": "A courseExam - instructor association must be unique.",
      "fields": [
        "courseExam",
        "instructor"
      ]
    }
  ],
  "eventListeners": [
    {
      "type": "@themost/data/previous-state-listener"
    },
    {
      "type": "./listeners/course-exam-instructor-listener"
    }
  ],
  "privileges": [
    {
      "mask": 1,
      "type": "global",
      "account": "Instructors"
    },
    {
      "mask": 1,
      "type": "global",
      "account": "Students"
    },
    {
      "mask": 15,
      "type": "global"
    },
    {
      "mask": 15,
      "type": "global",
      "account": "Administrators"
    },
    {
      "mask": 15,
      "type": "self",
      "account": "Registrar",
      "filter": "courseExam/course/department eq departments()"
    }
  ]
}
