{
  "$schema": "https://themost-framework.github.io/themost/models/2018/2/schema.json",
  "@id": "https://universis.io/schemas/TeachingEvent",
  "name": "EducationEvent",
  "description": "An event associated with an education activity",
  "title": "EducationEvent",
  "abstract": false,
  "sealed": false,
  "inherits": "Event",
  "version": "0.1",
  "fields": [
    {
      "@id": "http://schema.org/assesses",
      "name": "assesses",
      "title": "assesses",
      "description": "The item being described is intended to assess the competency or learning outcome defined by the referenced term.",
      "type": "Text"
    },
    {
      "@id": "http://schema.org/educationalLevel",
      "name": "educationalLevel",
      "title": "educationalLevel",
      "description": "The level in terms of progression through an educational or training context.",
      "type": "EducationLevel"
    },
    {
      "@id": "http://schema.org/teaches",
      "name": "teaches",
      "title": "teaches",
      "description": "The item being described is intended to help a person learn the competency or learning outcome defined by the referenced term.",
      "type": "Text"
    },
    {
      "name": "presenceType",
      "title": "Presence Type",
      "description": "0 counts absences/1 counts presences",
      "type": "Integer",
      "size": 2,
      "editable": false,
      "nullable": false
    },
    {
      "name": "attendanceList",
      "title": "Education event Attendance list collection",
      "description": "A collection of presence/absence records.",
      "type": "EducationEventAttendance",
      "many": true,
      "mapping": {
        "associationAdapter": "EducationEventAttendanceRecords",
        "parentModel": "EducationEvent",
        "parentField": "id",
        "childModel": "EducationEventAttendance",
        "childField": "event",
        "associationType": "association"
      }
    }
  ],
  "privileges": [
    {
      "mask": 15,
      "type": "global"
    },
    {
      "mask": 15,
      "type": "global",
      "account": "Administrators"
    }
  ]
}
