{
    "$schema": "https://themost-framework.github.io/themost/models/2018/2/schema.json",
    "@id": "https://universis.io/schemas/GraduationEvent",
    "name": "GraduationEvent",
    "description": "A student graduation event",
    "title": "GraduationEvent",
    "abstract": false,
    "sealed": false,
    "inherits": "Event",
    "version": "0.5",
    "fields": [
        {
            "@id": "https://universis.io/properties/graduationYear",
            "name": "graduationYear",
            "title": "Graduation year",
            "description": "Graduation academic year",
            "type": "AcademicYear",
            "expandable": true,
            "nullable": false
        },
        {
            "@id": "https://universis.io/properties/graduationPeriod",
            "name": "graduationPeriod",
            "title": "Graduation period",
            "description": "Graduation academic period",
            "type": "AcademicPeriod",
            "expandable": true,
            "nullable": false
        },
        {
            "@id": "http://schema.org/organizer",
            "name": "organizer",
            "title": "organizer",
            "description": "An organizer of an Event.",
            "type": "Department",
            "nullable": false
        },
        {
            "@id": "http://schema.org/validFrom",
            "name": "validFrom",
            "title": "validFrom",
            "description": "The date when the item becomes valid.",
            "type": "DateTime"
        },
        {
            "@id": "http://schema.org/validThrough",
            "name": "validThrough",
            "title": "validThrough",
            "description": "The date after when the item is not valid. For example the end of an offer, salary period, or a period of opening hours.",
            "type": "DateTime"
        },
        {
            "@id": "http://schema.org/identifier",
            "name": "identifier",
            "title": "identifier",
            "description": "The identifier property represents any kind of identifier for any kind of Thing, such as ISBNs, GTIN codes, UUIDs etc. Schema.org provides dedicated properties for representing many of these, either as textual strings or as URL (URI) links.",
            "type": "Guid",
            "value": "javascript:return this.newGuid();",
            "nullable": false
        },
        {
            "name": "virtual",
            "title": "Virtual event",
            "description": "Virtual event",
            "type": "Boolean",
            "value": "javascript:return false;"
        },
        {
            "name": "studyPrograms",
            "title": "Study programs",
            "description": "A collection of available study programs.",
            "type": "StudyProgram",
            "mapping": {
                "associationAdapter": "GraduationEventStudyPrograms",
                "parentModel": "StudyProgram",
                "parentField": "id",
                "childModel": "GraduationEvent",
                "childField": "id",
                "associationType": "junction",
                "privileges": [
                    {
                        "mask": 1,
                        "type": "global",
                        "account": "Students"
                    },
                    {
                        "mask": 15,
                        "type": "global",
                        "account": "Administrators"
                    },
                    {
                        "mask": 15,
                        "type": "global",
                        "account": "Registrar"
                    }
                ]
            }
        },
        {
            "name": "attachmentTypes",
            "title": "Attachment types",
            "description": "Attachment types required",
            "type": "GraduationAttachmentConfiguration",
            "many": true,
            "nested": true,
            "mapping": {
                "parentModel": "GraduationEvent",
                "childModel": "GraduationAttachmentConfiguration",
                "parentField": "identifier",
                "childField": "object",
                "cascade": "delete",
                "associationType": "association"
            }
        },
        {
            "name": "reportTemplates",
            "title": "Student report templates",
            "description": "Auto published student certificates",
            "type": "ReportTemplate",
            "mapping": {
                "associationAdapter": "GraduationEventReportTemplates",
                "parentModel": "ReportTemplate",
                "parentField": "id",
                "childModel": "GraduationEvent",
                "childField": "id",
                "associationType": "junction",
                "privileges": [
                    {
                        "mask": 1,
                        "type": "global",
                        "account": "Students"
                    },
                    {
                        "mask": 15,
                        "type": "global",
                        "account": "Administrators"
                    },
                    {
                        "mask": 15,
                        "type": "global",
                        "account": "Registrar"
                    }
                ]
            }

        }
    ],
    "constraints": [
        {
            "type": "unique",
            "fields": [
                "identifier"
            ]
        }
    ],
    "eventListeners": [
        {
            "type": "@themost/data/previous-state-listener"
        },
        {
            "type": "./listeners/graduation-event-update-listener"
        }
    ],
    "privileges": [
        {
            "mask": 15,
            "type": "global"
        },
        {
            "mask": 1,
            "type": "self",
            "account": "Students",
            "filter": "organizer eq departments()"
        },
        {
            "mask": 15,
            "type": "global",
            "account": "Administrators"
        },
        {
            "mask": 15,
            "type": "self",
            "account": "Registrar",
            "filter": "organizer eq departments()"
        }
    ]
}
