{
  "$schema": "https://themost-framework.github.io/themost/models/2018/2/schema.json",
  "name": "Message",
  "title": "Messages",
  "hidden": false,
  "sealed": false,
  "abstract": false,
  "version": "1.2",
  "implements": "Thing",
  "fields": [
    {
      "name": "subject",
      "title": "Subject",
      "description": "The subject of this message.",
      "type": "Text"
    },
    {
      "name": "body",
      "title": "Body",
      "description": "The body of this message.",
      "type": "Text",
      "size": 8000
    },
    {
      "name": "sender",
      "title": "Sender",
      "description": "The email addresses of the author or authors of the message.",
      "type": "Account",
      "value": "javascript:return this.user();",
      "nullable": false,
      "readonly": true
    },
    {
      "name": "recipient",
      "title": "Recipient",
      "description": "The email addresses of the primary recipients of this message.",
      "type": "Account",
      "nullable": false
    },
    {
      "name": "cc",
      "title": "Cc",
      "description": "The email addresses of the secondary recipients of this message.",
      "type": "Text"
    },
    {
      "name": "bcc",
      "title": "Bcc",
      "description": "The email addresses of the hidden recipients of this message.",
      "type": "Text"
    },
    {
      "name": "category",
      "title": "Category",
      "description": "The category of this message.",
      "type": "Text"
    },
    {
      "name": "dateReceived",
      "title": "Date Received",
      "description": "The date and time when the message was received.",
      "type": "DateTime"
    },
    {
      "name": "owner",
      "title": "Owner",
      "description": "The user who owns this message.",
      "type": "User",
      "value": "javascript:return this.user();",
      "nullable": false,
      "readonly": true
    },
    {
      "name": "action",
      "title": "Action",
      "description": "The action associated with this message.",
      "type": "Action"
    },
    {
      "name": "identifier",
      "title": "Message Identifier",
      "description": "A string that represents a numeric or alphanumeric sequence which identifies uniquely the current item.",
      "nullable": false,
      "type": "Text",
      "size": 36,
      "value": "javascript:return this.newGuid();",
      "readonly": true
    },
    {
      "name": "about",
      "title": "About",
      "description": "About object reference",
      "type": "Text",
      "size": 255
    },
    {
      "name": "attachments",
      "type": "Attachment",
      "mapping": {
        "cascade": "delete",
        "associationType": "junction",
        "associationAdapter": "MessageAttachments"
      }
    }
  ],
  "eventListeners": [
  ],
  "privileges": [
    {
      "mask": 15,
      "type": "global"
    },
    {
      "mask": 15,
      "type": "self",
      "filter": "owner eq me()"
    },
    {
      "mask": 1,
      "type": "self",
      "filter": "recipient eq me()"
    }
  ]
}
