{
  "$schema": "https://themost-framework.github.io/themost/models/2018/2/schema.json",
  "@id": "https://universis.io/schemas/RuleMeanGradeType",
  "name": "RuleMeanGradeType",
  "title": "Rule check type",
  "description": "Τύποι ελέγχου κανόνων μέσου όρου μαθημάτων",
  "hidden": false,
  "sealed": false,
  "abstract": false,
  "caching": "always",
  "implements": "Enumeration",
  "category": "lookup",
  "version": "1.0",
  "fields": [
    {
      "name": "id",
      "title": "Id",
      "type": "Counter",
      "nullable": false,
      "primary": true
    }
  ],
  "privileges": [
    {
      "mask": 1,
      "type": "global",
      "account": "*"
    },
    {
      "mask": 15,
      "type": "global"
    },
    {
      "mask": 15,
      "type": "global",
      "account": "Administrators"
    }
  ],
  "constraints": [
    {
      "type": "unique",
      "description": "Alternate name must be unique across different records",
      "fields": [
        "alternateName"
      ]
    },
    {
      "type": "unique",
      "description": "Name must be unique across different records",
      "fields": [
        "name"
      ]
    }
  ],
  "seed": [
    {
      "alternateName": "withCoefficients",
      "name": "Με συντελεστές",
      "identifier": 1,
      "description": "Μέσος όρος με συντελεστές βαρύτητας"
    },
    {
      "alternateName": "excludeExemption",
      "name": "Εξαίρεση απαλλαγών",
      "identifier": 2,
      "description": "Να μην υπολογιστούν οι απαλλαγές"
    },
    {
      "alternateName": "maximumMeanGrade",
      "name": "Υπολογισμός μέγιστου μέσου όρου",
      "identifier": 4,
      "description": "Υπολογισμός μέγιστου μέσου όρου"
    },
    {
      "alternateName": "totalUnits",
      "name": "Υπολογισμός συνόλων μαθημάτων με ΔΜ",
      "identifier": 8,
      "description": "Υπολογισμός συνόλων μαθημάτων με ΔΜ"
    },
    {
      "alternateName": "calculateCourses",
      "name": "Να υπολογίζονται και τα μαθήματα που δεν μετρούν στο πτυχίο",
      "identifier": 16,
      "description": "Να υπολογίζονται και τα μαθήματα που δεν μετρούν στο πτυχίο"
    }

  ],
  "eventListeners": [
    {
      "name": "Lookup Cache Listener",
      "type": "./listeners/lookup-cache-listener.js"
    }
  ]
}
