{
  "$schema": "https://themost-framework.github.io/themost/models/2018/2/schema.json",
  "@id": "https://universis.io/schemas/StudyProgramSpecialty",
  "name": "StudyProgramSpecialty",
  "title": "Κατευθύνση προγράμματος σπουδών",
  "hidden": false,
  "sealed": false,
  "version": "0.2",
  "fields": [
    {
      "name": "id",
      "title": "Κωδικός",
      "description": "Ο μοναδικός κωδικός της κατεύθυνσης.",
      "type": "Text",
      "nullable": false,
      "size": 36,
      "primary": true,
      "readonly": true,
      "value": "javascript:return this.newGuid();"
    },
    {
      "name": "studyProgram",
      "title": "Πρόγραμμα σπουδών",
      "description": "Το πρόγραμμα σπουδών στο οποίο ανήκει η κατεύθυνση",
      "type": "StudyProgram",
      "nullable": false,
      "editable": false
    },
    {
      "name": "specialty",
      "title": "Κωδικός κατεύθυνσης προγράμματος σπουδών",
      "description": "Ο κωδικός της κατεύθυνσης",
      "type": "Integer",
      "nullable": false,
      "editable": false
    },
    {
      "name": "name",
      "title": "Περιγραφή",
      "description": "Μία σύντομη περιγραφή για την κατεύθυνση",
      "type": "Text",
      "nullable": false,
      "size": 150
    },
    {
      "name": "abbreviation",
      "title": "Συντομογραφία",
      "description": "Η συντομογραφία της κατεύθυνσης",
      "type": "Text",
      "nullable": true,
      "size": 20
    },
    {
      "name": "locales",
      "type": "StudyProgramSpecialtyLocale",
      "mapping": {
        "associationType": "association",
        "cascade": "delete",
        "parentModel": "StudyProgramSpecialty",
        "parentField": "id",
        "childModel": "StudyProgramSpecialtyLocale",
        "childField": "object"
      }
    },
    {
      "name": "locale",
      "type": "StudyProgramSpecialtyLocale",
      "readonly": true,
      "editable": false,
      "many": true,
      "expandable": true,
      "multiplicity": "ZeroOrOne",
      "mapping": {
        "associationType": "association",
        "cascade": "delete",
        "parentModel": "StudyProgramSpecialty",
        "parentField": "id",
        "childModel": "StudyProgramSpecialtyLocale",
        "childField": "object",
        "options": {
          "$filter": "inLanguage eq lang()",
          "$first": true
        }
      }
    }
  ],
  "constraints": [
    {
      "type": "unique",
      "fields": [
        "studyProgram",
        "specialty"
      ]
    }
  ],
  "eventListeners": [
    {
      "type": "./listeners/data-localization"
    },
    {
      "type": "./listeners/study-program-specialty-listener"
    }
  ],
  "privileges": [
    {
      "mask": 1,
      "type": "global",
      "account": "*"
    },
    {
      "mask": 15,
      "type": "global"
    },
    {
      "mask": 15,
      "type": "global",
      "account": "Administrators"
    },
    {
      "mask": 15,
      "type": "self",
      "account": "Registrar",
      "filter": "studyProgram/department eq departments()"
    }
  ]
}
