{
    "$schema": "https://themost-framework.github.io/themost/models/2018/2/schema.json",
    "@id": "https://themost.io/schemas/StudentAttachments",
    "name": "StudentAttachments",
    "title": "Student Attachments",
    "source": "StudentAttachments",
    "view": "StudentAttachments",
    "version": "1.0",
    "hidden": true,
    "fields": [
        {
            "name": "id",
            "type": "Counter",
            "primary": true
        },
        {
            "name": "student",
            "indexed": true,
            "nullable": false,
            "type": "Student"
        },
        {
            "name": "attachment",
            "indexed": true,
            "nullable": false,
            "type": "Attachment"
        }
    ],
    "constraints": [
        {
            "type": "unique",
            "fields": [
                "student",
                "attachment"
            ]
        }
    ],

    "privileges": [
        {
            "mask": 15,
            "type": "global",
            "account": "Administrators"
        },
        {
            "mask": 15,
            "type": "self",
            "account": "Registrar",
            "filter": "student/department eq departments()"
        },
        {
            "mask": 3,
            "type": "self",
            "filter": "student eq student()",
            "account": "Students"
        }
    ]
}
